<?xml version="1.0" encoding="UTF-8"?>
<testsuite xmlns:xsi="http://www.w3.org/2001/XMLSchema-instance" xsi:noNamespaceSchemaLocation="https://maven.apache.org/surefire/maven-surefire-plugin/xsd/surefire-test-report.xsd" name="TestSuite" time="1.416" tests="1" errors="0" skipped="0" failures="1">
  <properties>
    <property name="java.specification.version" value="13"/>
    <property name="sun.jnu.encoding" value="UTF-8"/>
    <property name="java.class.path" value="/Users/joshrobbins/IdeaProjects/ExamNow-Auto/ExamNow/target/test-classes:/Users/joshrobbins/IdeaProjects/ExamNow-Auto/ExamNow/target/classes:/Users/joshrobbins/.m2/repository/org/testng/testng/7.1.0/testng-7.1.0.jar:/Users/joshrobbins/.m2/repository/com/beust/jcommander/1.72/jcommander-1.72.jar:/Users/joshrobbins/.m2/repository/com/google/inject/guice/4.1.0/guice-4.1.0-no_aop.jar:/Users/joshrobbins/.m2/repository/javax/inject/javax.inject/1/javax.inject-1.jar:/Users/joshrobbins/.m2/repository/aopalliance/aopalliance/1.0/aopalliance-1.0.jar:/Users/joshrobbins/.m2/repository/org/yaml/snakeyaml/1.21/snakeyaml-1.21.jar:/Users/joshrobbins/.m2/repository/log4j/log4j/1.2.17/log4j-1.2.17.jar:/Users/joshrobbins/.m2/repository/org/seleniumhq/selenium/selenium-java/3.141.59/selenium-java-3.141.59.jar:/Users/joshrobbins/.m2/repository/org/seleniumhq/selenium/selenium-api/3.141.59/selenium-api-3.141.59.jar:/Users/joshrobbins/.m2/repository/org/seleniumhq/selenium/selenium-edge-driver/3.141.59/selenium-edge-driver-3.141.59.jar:/Users/joshrobbins/.m2/repository/org/seleniumhq/selenium/selenium-firefox-driver/3.141.59/selenium-firefox-driver-3.141.59.jar:/Users/joshrobbins/.m2/repository/org/seleniumhq/selenium/selenium-ie-driver/3.141.59/selenium-ie-driver-3.141.59.jar:/Users/joshrobbins/.m2/repository/org/seleniumhq/selenium/selenium-opera-driver/3.141.59/selenium-opera-driver-3.141.59.jar:/Users/joshrobbins/.m2/repository/org/seleniumhq/selenium/selenium-remote-driver/3.141.59/selenium-remote-driver-3.141.59.jar:/Users/joshrobbins/.m2/repository/org/seleniumhq/selenium/selenium-safari-driver/3.141.59/selenium-safari-driver-3.141.59.jar:/Users/joshrobbins/.m2/repository/org/seleniumhq/selenium/selenium-support/3.141.59/selenium-support-3.141.59.jar:/Users/joshrobbins/.m2/repository/net/bytebuddy/byte-buddy/1.8.15/byte-buddy-1.8.15.jar:/Users/joshrobbins/.m2/repository/org/apache/commons/commons-exec/1.3/commons-exec-1.3.jar:/Users/joshrobbins/.m2/repository/com/google/guava/guava/25.0-jre/guava-25.0-jre.jar:/Users/joshrobbins/.m2/repository/com/google/code/findbugs/jsr305/1.3.9/jsr305-1.3.9.jar:/Users/joshrobbins/.m2/repository/org/checkerframework/checker-compat-qual/2.0.0/checker-compat-qual-2.0.0.jar:/Users/joshrobbins/.m2/repository/com/google/errorprone/error_prone_annotations/2.1.3/error_prone_annotations-2.1.3.jar:/Users/joshrobbins/.m2/repository/com/google/j2objc/j2objc-annotations/1.1/j2objc-annotations-1.1.jar:/Users/joshrobbins/.m2/repository/org/codehaus/mojo/animal-sniffer-annotations/1.14/animal-sniffer-annotations-1.14.jar:/Users/joshrobbins/.m2/repository/com/squareup/okhttp3/okhttp/3.11.0/okhttp-3.11.0.jar:/Users/joshrobbins/.m2/repository/com/squareup/okio/okio/1.14.0/okio-1.14.0.jar:/Users/joshrobbins/.m2/repository/junit/junit/4.12/junit-4.12.jar:/Users/joshrobbins/.m2/repository/org/hamcrest/hamcrest-core/1.3/hamcrest-core-1.3.jar:/Users/joshrobbins/.m2/repository/io/github/bonigarcia/webdrivermanager/2.2.5/webdrivermanager-2.2.5.jar:/Users/joshrobbins/.m2/repository/org/slf4j/slf4j-api/1.7.25/slf4j-api-1.7.25.jar:/Users/joshrobbins/.m2/repository/commons-io/commons-io/2.6/commons-io-2.6.jar:/Users/joshrobbins/.m2/repository/com/google/code/gson/gson/2.8.5/gson-2.8.5.jar:/Users/joshrobbins/.m2/repository/org/apache/commons/commons-lang3/3.7/commons-lang3-3.7.jar:/Users/joshrobbins/.m2/repository/org/apache/httpcomponents/httpclient/4.5.5/httpclient-4.5.5.jar:/Users/joshrobbins/.m2/repository/org/apache/httpcomponents/httpcore/4.4.9/httpcore-4.4.9.jar:/Users/joshrobbins/.m2/repository/commons-logging/commons-logging/1.2/commons-logging-1.2.jar:/Users/joshrobbins/.m2/repository/commons-codec/commons-codec/1.10/commons-codec-1.10.jar:/Users/joshrobbins/.m2/repository/org/rauschig/jarchivelib/0.8.0/jarchivelib-0.8.0.jar:/Users/joshrobbins/.m2/repository/org/apache/commons/commons-compress/1.14/commons-compress-1.14.jar:/Users/joshrobbins/.m2/repository/org/jsoup/jsoup/1.11.3/jsoup-1.11.3.jar:/Users/joshrobbins/.m2/repository/org/seleniumhq/selenium/selenium-chrome-driver/3.141.0/selenium-chrome-driver-3.141.0.jar:"/>
    <property name="java.vm.vendor" value="Oracle Corporation"/>
    <property name="sun.arch.data.model" value="64"/>
    <property name="java.vendor.url" value="https://java.oracle.com/"/>
    <property name="os.name" value="Mac OS X"/>
    <property name="java.vm.specification.version" value="13"/>
    <property name="sun.java.launcher" value="SUN_STANDARD"/>
    <property name="user.country" value="US"/>
    <property name="sun.boot.library.path" value="/Library/Java/JavaVirtualMachines/jdk-13.jdk/Contents/Home/lib"/>
    <property name="sun.java.command" value="/Users/joshrobbins/IdeaProjects/ExamNow-Auto/ExamNow/target/surefire/surefirebooter15097161618847923726.jar /Users/joshrobbins/IdeaProjects/ExamNow-Auto/ExamNow/target/surefire 2020-03-30T17-05-18_605-jvmRun1 surefire1164314203658596149tmp surefire_03152087463459588672tmp"/>
    <property name="http.nonProxyHosts" value="local|*.local|169.254/16|*.169.254/16"/>
    <property name="jdk.debug" value="release"/>
    <property name="surefire.test.class.path" value="/Users/joshrobbins/IdeaProjects/ExamNow-Auto/ExamNow/target/test-classes:/Users/joshrobbins/IdeaProjects/ExamNow-Auto/ExamNow/target/classes:/Users/joshrobbins/.m2/repository/org/testng/testng/7.1.0/testng-7.1.0.jar:/Users/joshrobbins/.m2/repository/com/beust/jcommander/1.72/jcommander-1.72.jar:/Users/joshrobbins/.m2/repository/com/google/inject/guice/4.1.0/guice-4.1.0-no_aop.jar:/Users/joshrobbins/.m2/repository/javax/inject/javax.inject/1/javax.inject-1.jar:/Users/joshrobbins/.m2/repository/aopalliance/aopalliance/1.0/aopalliance-1.0.jar:/Users/joshrobbins/.m2/repository/org/yaml/snakeyaml/1.21/snakeyaml-1.21.jar:/Users/joshrobbins/.m2/repository/log4j/log4j/1.2.17/log4j-1.2.17.jar:/Users/joshrobbins/.m2/repository/org/seleniumhq/selenium/selenium-java/3.141.59/selenium-java-3.141.59.jar:/Users/joshrobbins/.m2/repository/org/seleniumhq/selenium/selenium-api/3.141.59/selenium-api-3.141.59.jar:/Users/joshrobbins/.m2/repository/org/seleniumhq/selenium/selenium-edge-driver/3.141.59/selenium-edge-driver-3.141.59.jar:/Users/joshrobbins/.m2/repository/org/seleniumhq/selenium/selenium-firefox-driver/3.141.59/selenium-firefox-driver-3.141.59.jar:/Users/joshrobbins/.m2/repository/org/seleniumhq/selenium/selenium-ie-driver/3.141.59/selenium-ie-driver-3.141.59.jar:/Users/joshrobbins/.m2/repository/org/seleniumhq/selenium/selenium-opera-driver/3.141.59/selenium-opera-driver-3.141.59.jar:/Users/joshrobbins/.m2/repository/org/seleniumhq/selenium/selenium-remote-driver/3.141.59/selenium-remote-driver-3.141.59.jar:/Users/joshrobbins/.m2/repository/org/seleniumhq/selenium/selenium-safari-driver/3.141.59/selenium-safari-driver-3.141.59.jar:/Users/joshrobbins/.m2/repository/org/seleniumhq/selenium/selenium-support/3.141.59/selenium-support-3.141.59.jar:/Users/joshrobbins/.m2/repository/net/bytebuddy/byte-buddy/1.8.15/byte-buddy-1.8.15.jar:/Users/joshrobbins/.m2/repository/org/apache/commons/commons-exec/1.3/commons-exec-1.3.jar:/Users/joshrobbins/.m2/repository/com/google/guava/guava/25.0-jre/guava-25.0-jre.jar:/Users/joshrobbins/.m2/repository/com/google/code/findbugs/jsr305/1.3.9/jsr305-1.3.9.jar:/Users/joshrobbins/.m2/repository/org/checkerframework/checker-compat-qual/2.0.0/checker-compat-qual-2.0.0.jar:/Users/joshrobbins/.m2/repository/com/google/errorprone/error_prone_annotations/2.1.3/error_prone_annotations-2.1.3.jar:/Users/joshrobbins/.m2/repository/com/google/j2objc/j2objc-annotations/1.1/j2objc-annotations-1.1.jar:/Users/joshrobbins/.m2/repository/org/codehaus/mojo/animal-sniffer-annotations/1.14/animal-sniffer-annotations-1.14.jar:/Users/joshrobbins/.m2/repository/com/squareup/okhttp3/okhttp/3.11.0/okhttp-3.11.0.jar:/Users/joshrobbins/.m2/repository/com/squareup/okio/okio/1.14.0/okio-1.14.0.jar:/Users/joshrobbins/.m2/repository/junit/junit/4.12/junit-4.12.jar:/Users/joshrobbins/.m2/repository/org/hamcrest/hamcrest-core/1.3/hamcrest-core-1.3.jar:/Users/joshrobbins/.m2/repository/io/github/bonigarcia/webdrivermanager/2.2.5/webdrivermanager-2.2.5.jar:/Users/joshrobbins/.m2/repository/org/slf4j/slf4j-api/1.7.25/slf4j-api-1.7.25.jar:/Users/joshrobbins/.m2/repository/commons-io/commons-io/2.6/commons-io-2.6.jar:/Users/joshrobbins/.m2/repository/com/google/code/gson/gson/2.8.5/gson-2.8.5.jar:/Users/joshrobbins/.m2/repository/org/apache/commons/commons-lang3/3.7/commons-lang3-3.7.jar:/Users/joshrobbins/.m2/repository/org/apache/httpcomponents/httpclient/4.5.5/httpclient-4.5.5.jar:/Users/joshrobbins/.m2/repository/org/apache/httpcomponents/httpcore/4.4.9/httpcore-4.4.9.jar:/Users/joshrobbins/.m2/repository/commons-logging/commons-logging/1.2/commons-logging-1.2.jar:/Users/joshrobbins/.m2/repository/commons-codec/commons-codec/1.10/commons-codec-1.10.jar:/Users/joshrobbins/.m2/repository/org/rauschig/jarchivelib/0.8.0/jarchivelib-0.8.0.jar:/Users/joshrobbins/.m2/repository/org/apache/commons/commons-compress/1.14/commons-compress-1.14.jar:/Users/joshrobbins/.m2/repository/org/jsoup/jsoup/1.11.3/jsoup-1.11.3.jar:/Users/joshrobbins/.m2/repository/org/seleniumhq/selenium/selenium-chrome-driver/3.141.0/selenium-chrome-driver-3.141.0.jar:"/>
    <property name="sun.cpu.endian" value="little"/>
    <property name="user.home" value="/Users/joshrobbins"/>
    <property name="user.language" value="en"/>
    <property name="java.specification.vendor" value="Oracle Corporation"/>
    <property name="java.version.date" value="2019-09-17"/>
    <property name="java.home" value="/Library/Java/JavaVirtualMachines/jdk-13.jdk/Contents/Home"/>
    <property name="file.separator" value="/"/>
    <property name="basedir" value="/Users/joshrobbins/IdeaProjects/ExamNow-Auto/ExamNow"/>
    <property name="java.vm.compressedOopsMode" value="Zero based"/>
    <property name="line.separator" value="&#10;"/>
    <property name="java.specification.name" value="Java Platform API Specification"/>
    <property name="java.vm.specification.vendor" value="Oracle Corporation"/>
    <property name="surefire.real.class.path" value="/Users/joshrobbins/IdeaProjects/ExamNow-Auto/ExamNow/target/surefire/surefirebooter15097161618847923726.jar"/>
    <property name="sun.management.compiler" value="HotSpot 64-Bit Tiered Compilers"/>
    <property name="ftp.nonProxyHosts" value="local|*.local|169.254/16|*.169.254/16"/>
    <property name="java.runtime.version" value="13+33"/>
    <property name="user.name" value="joshrobbins"/>
    <property name="path.separator" value=":"/>
    <property name="os.version" value="10.15.3"/>
    <property name="java.runtime.name" value="Java(TM) SE Runtime Environment"/>
    <property name="file.encoding" value="UTF-8"/>
    <property name="java.vm.name" value="Java HotSpot(TM) 64-Bit Server VM"/>
    <property name="localRepository" value="/Users/joshrobbins/.m2/repository"/>
    <property name="java.vendor.url.bug" value="https://bugreport.java.com/bugreport/"/>
    <property name="java.io.tmpdir" value="/var/folders/1m/95gmbh8j2ssd3zxrn3k9glt80000gp/T/"/>
    <property name="java.version" value="13"/>
    <property name="user.dir" value="/Users/joshrobbins/IdeaProjects/ExamNow-Auto/ExamNow"/>
    <property name="os.arch" value="x86_64"/>
    <property name="java.vm.specification.name" value="Java Virtual Machine Specification"/>
    <property name="java.library.path" value="/Users/joshrobbins/Library/Java/Extensions:/Library/Java/Extensions:/Network/Library/Java/Extensions:/System/Library/Java/Extensions:/usr/lib/java:."/>
    <property name="java.vm.info" value="mixed mode, sharing"/>
    <property name="java.vendor" value="Oracle Corporation"/>
    <property name="java.vm.version" value="13+33"/>
    <property name="sun.io.unicode.encoding" value="UnicodeBig"/>
    <property name="socksNonProxyHosts" value="local|*.local|169.254/16|*.169.254/16"/>
    <property name="java.class.version" value="57.0"/>
  </properties>
  <testcase name="test" classname="com.examsoft.app.LegacyTest.HomePageTest" time="1.022">
    <failure message="io.github.bonigarcia.wdm.WebDriverManagerException: chromedriver 80.0.3987.149 for MAC64 not found in https://chromedriver.storage.googleapis.com/" type="io.github.bonigarcia.wdm.WebDriverManagerException">io.github.bonigarcia.wdm.WebDriverManagerException: io.github.bonigarcia.wdm.WebDriverManagerException: chromedriver 80.0.3987.149 for MAC64 not found in https://chromedriver.storage.googleapis.com/
	at com.examsoft.app.LegacyTest.HomePageTest.test(HomePageTest.java:30)
Caused by: io.github.bonigarcia.wdm.WebDriverManagerException: chromedriver 80.0.3987.149 for MAC64 not found in https://chromedriver.storage.googleapis.com/
	at com.examsoft.app.LegacyTest.HomePageTest.test(HomePageTest.java:30)
</failure>
    <system-err><![CDATA[SLF4J: Failed to load class "org.slf4j.impl.StaticLoggerBinder".
SLF4J: Defaulting to no-operation (NOP) logger implementation
SLF4J: See http://www.slf4j.org/codes.html#StaticLoggerBinder for further details.
]]></system-err>
  </testcase>
</testsuite>