<?xml version="1.0" encoding="UTF-8"?>
<!DOCTYPE suite SYSTEM "https://testng.org/testng-1.0.dtd">
<suite name="Failed suite [All Test Suite]" guice-stage="DEVELOPMENT" verbose="0">
  <test thread-count="5" name="/Users/joshrobbins/IdeaProjects/ExamNow-Auto/ExamNow(failed)" verbose="0">
    <classes>
      <class name="com.examsoft.app.LegacyTest.HomePageTest">
        <methods>
          <include name="test"/>
        </methods>
      </class> <!-- com.examsoft.app.LegacyTest.HomePageTest -->
    </classes>
  </test> <!-- /Users/joshrobbins/IdeaProjects/ExamNow-Auto/ExamNow(failed) -->
</suite> <!-- Failed suite [All Test Suite] -->
